{
    "title": "Presentation Title",
    "slug": "{{ cookiecutter.title | slugify }}",
    "theme": ["simple", "white", "black", "league", "beige", "night", "serif", "solarized", "moon", "dracula", "sky", "blood"],
    "transition": ["none", "fade", "slide", "convex", "concave", "zoom"],
    "highlightjs_theme": ["vs", "default", "github", "grayscale", "monokai", "nord", "stackoverflow-light"],
    "author_name": "Jane Doe",
    "author_email": "{{ cookiecutter.author_name | slugify(separator='.') }}@example.com"
}
